11
S S D W D D S A
A W W A W D D W
D S S D S A A S
A A A W W D D D 
D D D D D D D D
W W W W W W W W  
d s s s d d s d
a a a a w w w w
s s d d s a a s 
a a w w d d w a
s s s d d s a s
a w w a a w d w
s s d s s a s s
a w a w a w a w 
s s s s s s s s
w w w w w w w w
D D D S S D D D 
A A A W W W A A 
S S S D D S D S 
A A A W A A W W
s s d s s a s s
w w a w a w w a